…
The table we are interested in—**Presidential age-related data**—is the
first one in the list which we can select with the following command:

``` r
tbls = html_table(doc)

tbl = tbls[[1]]

# get rid of first row
tbl = tbl[-1, ]
tbl
```

    # A tibble: 47 × 8
       No.   President           Born  Age atstart of presi…¹ Age atend of preside…²
       <chr> <chr>               <chr> <chr>                  <chr>                 
     1 1     George Washington   Feb … 57 years, 67 daysApr … 65 years, 10 daysMar …
     2 2     John Adams          Oct … 61 years, 125 daysMar… 65 years, 125 daysMar…
     3 3     Thomas Jefferson    Apr … 57 years, 325 daysMar… 65 years, 325 daysMar…
     4 4     James Madison       Mar … 57 years, 353 daysMar… 65 years, 353 daysMar…
     5 5     James Monroe        Apr … 58 years, 310 daysMar… 66 years, 310 daysMar…
     6 6     John Quincy Adams   Jul … 57 years, 236 daysMar… 61 years, 236 daysMar…
     7 7     Andrew Jackson      Mar … 61 years, 354 daysMar… 69 years, 354 daysMar…
     8 8     Martin Van Buren    Dec … 54 years, 89 daysMar … 58 years, 89 daysMar …
     9 9     William Henry Harr… Feb … 68 years, 23 daysMar … 68 years, 54 daysApr …
    10 10    John Tyler          Mar … 51 years, 6 daysApr 4… 54 years, 340 daysMar…
    # ℹ 37 more rows
    # ℹ abbreviated names: ¹​`Age atstart of presidency`, ²​`Age atend of presidency`
    # ℹ 3 more variables: `Post-presidencytimespan` <chr>, Lifespan <chr>,
    #   Lifespan <chr>
…
dat = dat |>
  mutate(color = case_when(
    party == "Democratic" ~ "#468BFA",
    party == "Republican" ~ "#FC4E4B",
    .default = "#FFD438"
  ))

dat
```

    # A tibble: 47 × 7
       president              party      age_start age_end year_start year_end color
       <chr>                  <chr>          <dbl>   <dbl>      <dbl>    <dbl> <chr>
     1 George Washington      Other             57      65       1789     1797 #FFD…
     2 John Adams             Federalist        61      65       1797     1801 #FFD…
     3 Thomas Jefferson       Federalist        57      65       1801     1809 #FFD…
     4 James Madison          Federalist        57      65       1809     1817 #FFD…
     5 James Monroe           Federalist        58      66       1817     1825 #FFD…
     6 John Quincy Adams      Federalist        57      61       1825     1829 #FFD…
     7 Andrew Jackson         Democratic        61      69       1829     1837 #468…
     8 Martin Van Buren       Democratic        54      58       1837     1841 #468…
     9 William Henry Harrison Whig              68      68       1841     1841 #FFD…
    10 John Tyler             Whig              51      54       1841     1845 #FFD…
    # ℹ 37 more rows
…
